alembic==1.3.2
certifi==2019.11.28
chardet==3.0.4
Click==7.0
dominate==2.4.0
Flask==1.1.1
Flask-Bootstrap==3.3.7.1
Flask-Login==0.4.1
Flask-Migrate==2.5.2
Flask-SQLAlchemy==2.4.1
Flask-WTF==0.14.2
gunicorn==19.9.0
idna==2.8
itsdangerous==0.24
Jinja2==2.10.1
Mako==1.1.0
MarkupSafe==0.23
python-dateutil==2.8.1
python-editor==1.0.4
requests==2.22.0
sendgrid==1.2.0
six==1.8.0
smtpapi==0.1.2
SQLAlchemy==1.3.12
unittest2==0.8.0
unittest2py3k==0.5.1
urllib3==1.25.3
visitor==0.1.3
Werkzeug==0.15.5
WTForms==2.2.1
